Adv Phys II Lab 2/python/raw.githubusercontent.com/OlafPBach/Advanced-Physics-Lab-2/main/Lab-2-Test-4.csv

Info,Info2,Info3,Time1,Test1
Record Length,2500,Points,-2.48E-03,8.00E-02
Sample Interval,2.00E-06,s,-2.48E-03,8.00E-02
Trigger Point,1.24E+03,Samples,-2.48E-03,8.00E-02
,,,-2.47E-03,8.00E-02
,,,-2.47E-03,8.00E-02
,,,-2.47E-03,8.00E-02
Source,CH1,,-2.47E-03,8.00E-02
Vertical Units,Volts,,-2.47E-03,8.00E-02
Vertical Scale,2,,-2.46E-03,8.00E-02
Vertical Offset,0,,-2.46E-03,0
Horizontal Units,s,,-2.46E-03,8.00E-02
Horizontal Scale,5.00E-04,,-2.46E-03,8.00E-02
Pt Fmt,Y,,-2.46E-03,8.00E-02
Yzero,-7.20E-01,,-2.45E-03,8.00E-02
Probe Atten,1,,-2.45E-03,8.00E-02
,,,-2.45E-03,8.00E-02
Note,TDS 1002B - 11:29:38 AM   2/27/2023,,-2.45E-03,8.00E-02
,,,-2.45E-03,8.00E-02
,,,-2.44E-03,8.00E-02
,,,-2.44E-03,8.00E-02
,,,-2.44E-03,8.00E-02
,,,-2.44E-03,8.00E-02
,,,-2.44E-03,8.00E-02
,,,-2.43E-03,8.00E-02
,,,-2.43E-03,8.00E-02
,,,-2.43E-03,8.00E-02
,,,-2.43E-03,8.00E-02
,,,-2.43E-03,8.00E-02
,,,-2.42E-03,0
,,,-2.42E-03,0
,,,-2.42E-03,8.00E-02
,,,-2.42E-03,8.00E-02
,,,-2.42E-03,8.00E-02
,,,-2.41E-03,8.00E-02
,,,-2.41E-03,0
,,,-2.41E-03,8.00E-02
,,,-2.41E-03,8.00E-02
,,,-2.41E-03,8.00E-02
,,,-2.40E-03,0
,,,-2.40E-03,8.00E-02
,,,-2.40E-03,8.00E-02
,,,-2.40E-03,8.00E-02
,,,-2.40E-03,8.00E-02
,,,-2.39E-03,8.00E-02
,,,-2.39E-03,8.00E-02
,,,-2.39E-03,8.00E-02
,,,-2.39E-03,0
,,,-2.39E-03,8.00E-02
,,,-2.38E-03,8.00E-02
,,,-2.38E-03,8.00E-02
,,,-2.38E-03,0
,,,-2.38E-03,8.00E-02
,,,-2.38E-03,0
,,,-2.37E-03,8.00E-02
,,,-2.37E-03,8.00E-02
,,,-2.37E-03,0
,,,-2.37E-03,8.00E-02
,,,-2.37E-03,8.00E-02
,,,-2.36E-03,8.00E-02
,,,-2.36E-03,0
,,,-2.36E-03,8.00E-02
,,,-2.36E-03,8.00E-02
,,,-2.36E-03,8.00E-02
,,,-2.35E-03,0
,,,-2.35E-03,8.00E-02
,,,-2.35E-03,8.00E-02
,,,-2.35E-03,0
,,,-2.35E-03,8.00E-02
,,,-2.34E-03,8.00E-02
,,,-2.34E-03,8.00E-02
,,,-2.34E-03,8.00E-02
,,,-2.34E-03,8.00E-02
,,,-2.34E-03,8.00E-02
,,,-2.33E-03,8.00E-02
,,,-2.33E-03,0
,,,-2.33E-03,0
,,,-2.33E-03,8.00E-02
,,,-2.33E-03,8.00E-02
,,,-2.32E-03,8.00E-02
,,,-2.32E-03,8.00E-02
,,,-2.32E-03,8.00E-02
,,,-2.32E-03,8.00E-02
,,,-2.32E-03,8.00E-02
,,,-2.31E-03,8.00E-02
,,,-2.31E-03,8.00E-02
,,,-2.31E-03,8.00E-02
,,,-2.31E-03,8.00E-02
,,,-2.31E-03,8.00E-02
,,,-2.30E-03,8.00E-02
,,,-2.30E-03,8.00E-02
,,,-2.30E-03,8.00E-02
,,,-2.30E-03,8.00E-02
,,,-2.30E-03,8.00E-02
,,,-2.29E-03,8.00E-02
,,,-2.29E-03,8.00E-02
,,,-2.29E-03,8.00E-02
,,,-2.29E-03,8.00E-02
,,,-2.29E-03,8.00E-02
,,,-2.28E-03,8.00E-02
,,,-2.28E-03,8.00E-02
,,,-2.28E-03,8.00E-02
,,,-2.28E-03,8.00E-02
,,,-2.28E-03,8.00E-02
,,,-2.27E-03,0
,,,-2.27E-03,8.00E-02
,,,-2.27E-03,8.00E-02
,,,-2.27E-03,8.00E-02
,,,-2.27E-03,8.00E-02
,,,-2.26E-03,8.00E-02
,,,-2.26E-03,8.00E-02
,,,-2.26E-03,8.00E-02
,,,-2.26E-03,8.00E-02
,,,-2.26E-03,8.00E-02
,,,-2.25E-03,0
,,,-2.25E-03,0
,,,-2.25E-03,8.00E-02
,,,-2.25E-03,8.00E-02
,,,-2.25E-03,0
,,,-2.24E-03,8.00E-02
,,,-2.24E-03,8.00E-02
,,,-2.24E-03,0
,,,-2.24E-03,0
,,,-2.24E-03,8.00E-02
,,,-2.23E-03,8.00E-02
,,,-2.23E-03,0
,,,-2.23E-03,8.00E-02
,,,-2.23E-03,8.00E-02
,,,-2.23E-03,8.00E-02
,,,-2.22E-03,8.00E-02
,,,-2.22E-03,8.00E-02
,,,-2.22E-03,8.00E-02
,,,-2.22E-03,8.00E-02
,,,-2.22E-03,8.00E-02
,,,-2.21E-03,8.00E-02
,,,-2.21E-03,8.00E-02
,,,-2.21E-03,8.00E-02
,,,-2.21E-03,0
,,,-2.21E-03,8.00E-02
,,,-2.20E-03,8.00E-02
,,,-2.20E-03,8.00E-02
,,,-2.20E-03,8.00E-02
,,,-2.20E-03,0
,,,-2.20E-03,8.00E-02
,,,-2.19E-03,8.00E-02
,,,-2.19E-03,8.00E-02
,,,-2.19E-03,8.00E-02
,,,-2.19E-03,8.00E-02
,,,-2.19E-03,8.00E-02
,,,-2.18E-03,8.00E-02
,,,-2.18E-03,8.00E-02
,,,-2.18E-03,8.00E-02
,,,-2.18E-03,8.00E-02
,,,-2.18E-03,8.00E-02
,,,-2.17E-03,8.00E-02
,,,-2.17E-03,0
,,,-2.17E-03,8.00E-02
,,,-2.17E-03,8.00E-02
,,,-2.17E-03,0
,,,-2.16E-03,8.00E-02
,,,-2.16E-03,8.00E-02
,,,-2.16E-03,0
,,,-2.16E-03,8.00E-02
,,,-2.16E-03,8.00E-02
,,,-2.15E-03,8.00E-02
,,,-2.15E-03,0
,,,-2.15E-03,8.00E-02
,,,-2.15E-03,0
,,,-2.15E-03,8.00E-02
,,,-2.14E-03,8.00E-02
,,,-2.14E-03,8.00E-02
,,,-2.14E-03,8.00E-02
,,,-2.14E-03,8.00E-02
,,,-2.14E-03,8.00E-02
,,,-2.13E-03,0
,,,-2.13E-03,8.00E-02
,,,-2.13E-03,8.00E-02
,,,-2.13E-03,8.00E-02
,,,-2.13E-03,8.00E-02
,,,-2.12E-03,8.00E-02
,,,-2.12E-03,8.00E-02
,,,-2.12E-03,0
,,,-2.12E-03,0
,,,-2.12E-03,8.00E-02
,,,-2.11E-03,8.00E-02
,,,-2.11E-03,0
,,,-2.11E-03,8.00E-02
,,,-2.11E-03,8.00E-02
,,,-2.11E-03,0
,,,-2.10E-03,8.00E-02
,,,-2.10E-03,8.00E-02
,,,-2.10E-03,8.00E-02
,,,-2.10E-03,8.00E-02
,,,-2.10E-03,8.00E-02
,,,-2.09E-03,8.00E-02
,,,-2.09E-03,8.00E-02
,,,-2.09E-03,8.00E-02
,,,-2.09E-03,8.00E-02
,,,-2.09E-03,0
,,,-2.08E-03,8.00E-02
,,,-2.08E-03,8.00E-02
,,,-2.08E-03,8.00E-02
,,,-2.08E-03,0
,,,-2.08E-03,8.00E-02
,,,-2.07E-03,8.00E-02
,,,-2.07E-03,8.00E-02
,,,-2.07E-03,8.00E-02
,,,-2.07E-03,8.00E-02
,,,-2.07E-03,8.00E-02
,,,-2.06E-03,8.00E-02
,,,-2.06E-03,8.00E-02
,,,-2.06E-03,8.00E-02
,,,-2.06E-03,8.00E-02
,,,-2.06E-03,8.00E-02
,,,-2.05E-03,0
,,,-2.05E-03,8.00E-02
,,,-2.05E-03,8.00E-02
,,,-2.05E-03,8.00E-02
,,,-2.05E-03,0
,,,-2.04E-03,8.00E-02
,,,-2.04E-03,8.00E-02
,,,-2.04E-03,8.00E-02
,,,-2.04E-03,8.00E-02
,,,-2.04E-03,8.00E-02
,,,-2.03E-03,8.00E-02
,,,-2.03E-03,8.00E-02
,,,-2.03E-03,8.00E-02
,,,-2.03E-03,8.00E-02
,,,-2.03E-03,8.00E-02
,,,-2.02E-03,8.00E-02
,,,-2.02E-03,0
,,,-2.02E-03,8.00E-02
,,,-2.02E-03,0
,,,-2.02E-03,8.00E-02
,,,-2.01E-03,8.00E-02
,,,-2.01E-03,8.00E-02
,,,-2.01E-03,8.00E-02
,,,-2.01E-03,8.00E-02
,,,-2.01E-03,8.00E-02
,,,-2.00E-03,8.00E-02
,,,-2.00E-03,8.00E-02
,,,-2.00E-03,8.00E-02
,,,-2.00E-03,8.00E-02
,,,-2.00E-03,0
,,,-1.99E-03,8.00E-02
,,,-1.99E-03,0
,,,-1.99E-03,8.00E-02
,,,-1.99E-03,8.00E-02
,,,-1.99E-03,8.00E-02
,,,-1.98E-03,8.00E-02
,,,-1.98E-03,8.00E-02
,,,-1.98E-03,8.00E-02
,,,-1.98E-03,8.00E-02
,,,-1.98E-03,8.00E-02
,,,-1.97E-03,0
,,,-1.97E-03,8.00E-02
,,,-1.97E-03,8.00E-02
,,,-1.97E-03,8.00E-02
,,,-1.97E-03,8.00E-02
,,,-1.96E-03,0
,,,-1.96E-03,0
,,,-1.96E-03,8.00E-02
,,,-1.96E-03,8.00E-02
,,,-1.96E-03,8.00E-02
,,,-1.95E-03,8.00E-02
,,,-1.95E-03,8.00E-02
,,,-1.95E-03,8.00E-02
,,,-1.95E-03,8.00E-02
,,,-1.95E-03,8.00E-02
,,,-1.94E-03,8.00E-02
,,,-1.94E-03,0
,,,-1.94E-03,0
,,,-1.94E-03,8.00E-02
,,,-1.94E-03,8.00E-02
,,,-1.93E-03,8.00E-02
,,,-1.93E-03,8.00E-02
,,,-1.93E-03,8.00E-02
,,,-1.93E-03,8.00E-02
,,,-1.93E-03,0
,,,-1.92E-03,8.00E-02
,,,-1.92E-03,8.00E-02
,,,-1.92E-03,8.00E-02
,,,-1.92E-03,8.00E-02
,,,-1.92E-03,8.00E-02
,,,-1.91E-03,0
,,,-1.91E-03,0
,,,-1.91E-03,8.00E-02
,,,-1.91E-03,8.00E-02
,,,-1.91E-03,8.00E-02
,,,-1.90E-03,8.00E-02
,,,-1.90E-03,8.00E-02
,,,-1.90E-03,8.00E-02
,,,-1.90E-03,8.00E-02
,,,-1.90E-03,8.00E-02
,,,-1.89E-03,8.00E-02
,,,-1.89E-03,8.00E-02
,,,-1.89E-03,0
,,,-1.89E-03,8.00E-02
,,,-1.89E-03,0
,,,-1.88E-03,8.00E-02
,,,-1.88E-03,8.00E-02
,,,-1.88E-03,8.00E-02
,,,-1.88E-03,8.00E-02
,,,-1.88E-03,0
,,,-1.87E-03,0
,,,-1.87E-03,8.00E-02
,,,-1.87E-03,8.00E-02
,,,-1.87E-03,0
,,,-1.87E-03,8.00E-02
,,,-1.86E-03,0
,,,-1.86E-03,0
,,,-1.86E-03,0
,,,-1.86E-03,8.00E-02
,,,-1.86E-03,8.00E-02
,,,-1.85E-03,8.00E-02
,,,-1.85E-03,8.00E-02
,,,-1.85E-03,8.00E-02
,,,-1.85E-03,8.00E-02
,,,-1.85E-03,8.00E-02
,,,-1.84E-03,0
,,,-1.84E-03,8.00E-02
,,,-1.84E-03,8.00E-02
,,,-1.84E-03,8.00E-02
,,,-1.84E-03,8.00E-02
,,,-1.83E-03,8.00E-02
,,,-1.83E-03,0
,,,-1.83E-03,8.00E-02
,,,-1.83E-03,0
,,,-1.83E-03,8.00E-02
,,,-1.82E-03,8.00E-02
,,,-1.82E-03,8.00E-02
,,,-1.82E-03,8.00E-02
,,,-1.82E-03,8.00E-02
,,,-1.82E-03,8.00E-02
,,,-1.81E-03,8.00E-02
,,,-1.81E-03,8.00E-02
,,,-1.81E-03,8.00E-02
,,,-1.81E-03,8.00E-02
,,,-1.81E-03,8.00E-02
,,,-1.80E-03,8.00E-02
,,,-1.80E-03,8.00E-02
,,,-1.80E-03,8.00E-02
,,,-1.80E-03,8.00E-02
,,,-1.80E-03,8.00E-02
,,,-1.79E-03,8.00E-02
,,,-1.79E-03,8.00E-02
,,,-1.79E-03,8.00E-02
,,,-1.79E-03,8.00E-02
,,,-1.79E-03,8.00E-02
,,,-1.78E-03,8.00E-02
,,,-1.78E-03,0
,,,-1.78E-03,8.00E-02
,,,-1.78E-03,8.00E-02
,,,-1.78E-03,8.00E-02
,,,-1.77E-03,8.00E-02
,,,-1.77E-03,0
,,,-1.77E-03,8.00E-02
,,,-1.77E-03,8.00E-02
,,,-1.77E-03,8.00E-02
,,,-1.76E-03,8.00E-02
,,,-1.76E-03,8.00E-02
,,,-1.76E-03,8.00E-02
,,,-1.76E-03,8.00E-02
,,,-1.76E-03,8.00E-02
,,,-1.75E-03,0
,,,-1.75E-03,8.00E-02
,,,-1.75E-03,8.00E-02
,,,-1.75E-03,8.00E-02
,,,-1.75E-03,8.00E-02
,,,-1.74E-03,0
,,,-1.74E-03,8.00E-02
,,,-1.74E-03,8.00E-02
,,,-1.74E-03,8.00E-02
,,,-1.74E-03,8.00E-02
,,,-1.73E-03,8.00E-02
,,,-1.73E-03,0
,,,-1.73E-03,8.00E-02
,,,-1.73E-03,8.00E-02
,,,-1.73E-03,8.00E-02
,,,-1.72E-03,8.00E-02
,,,-1.72E-03,8.00E-02
,,,-1.72E-03,8.00E-02
,,,-1.72E-03,8.00E-02
,,,-1.72E-03,8.00E-02
,,,-1.71E-03,8.00E-02
,,,-1.71E-03,8.00E-02
,,,-1.71E-03,8.00E-02
,,,-1.71E-03,8.00E-02
,,,-1.71E-03,8.00E-02
,,,-1.70E-03,8.00E-02
,,,-1.70E-03,8.00E-02
,,,-1.70E-03,8.00E-02
,,,-1.70E-03,0
,,,-1.70E-03,8.00E-02
,,,-1.69E-03,8.00E-02
,,,-1.69E-03,8.00E-02
,,,-1.69E-03,8.00E-02
,,,-1.69E-03,8.00E-02
,,,-1.69E-03,8.00E-02
,,,-1.68E-03,8.00E-02
,,,-1.68E-03,8.00E-02
,,,-1.68E-03,8.00E-02
,,,-1.68E-03,0
,,,-1.68E-03,8.00E-02
,,,-1.67E-03,0
,,,-1.67E-03,8.00E-02
,,,-1.67E-03,8.00E-02
,,,-1.67E-03,8.00E-02
,,,-1.67E-03,8.00E-02
,,,-1.66E-03,8.00E-02
,,,-1.66E-03,8.00E-02
,,,-1.66E-03,8.00E-02
,,,-1.66E-03,8.00E-02
,,,-1.66E-03,8.00E-02
,,,-1.65E-03,8.00E-02
,,,-1.65E-03,8.00E-02
,,,-1.65E-03,8.00E-02
,,,-1.65E-03,0
,,,-1.65E-03,8.00E-02
,,,-1.64E-03,0
,,,-1.64E-03,8.00E-02
,,,-1.64E-03,8.00E-02
,,,-1.64E-03,8.00E-02
,,,-1.64E-03,8.00E-02
,,,-1.63E-03,8.00E-02
,,,-1.63E-03,8.00E-02
,,,-1.63E-03,0
,,,-1.63E-03,8.00E-02
,,,-1.63E-03,8.00E-02
,,,-1.62E-03,8.00E-02
,,,-1.62E-03,8.00E-02
,,,-1.62E-03,8.00E-02
,,,-1.62E-03,8.00E-02
,,,-1.62E-03,8.00E-02
,,,-1.61E-03,8.00E-02
,,,-1.61E-03,8.00E-02
,,,-1.61E-03,8.00E-02
,,,-1.61E-03,8.00E-02
,,,-1.61E-03,8.00E-02
,,,-1.60E-03,8.00E-02
,,,-1.60E-03,8.00E-02
,,,-1.60E-03,8.00E-02
,,,-1.60E-03,8.00E-02
,,,-1.60E-03,8.00E-02
,,,-1.59E-03,8.00E-02
,,,-1.59E-03,8.00E-02
,,,-1.59E-03,0
,,,-1.59E-03,0
,,,-1.59E-03,8.00E-02
,,,-1.58E-03,8.00E-02
,,,-1.58E-03,8.00E-02
,,,-1.58E-03,8.00E-02
,,,-1.58E-03,8.00E-02
,,,-1.58E-03,8.00E-02
,,,-1.57E-03,8.00E-02
,,,-1.57E-03,8.00E-02
,,,-1.57E-03,8.00E-02
,,,-1.57E-03,8.00E-02
,,,-1.57E-03,8.00E-02
,,,-1.56E-03,0
,,,-1.56E-03,8.00E-02
,,,-1.56E-03,8.00E-02
,,,-1.56E-03,8.00E-02
,,,-1.56E-03,0
,,,-1.55E-03,0
,,,-1.55E-03,8.00E-02
,,,-1.55E-03,8.00E-02
,,,-1.55E-03,0
,,,-1.55E-03,8.00E-02
,,,-1.54E-03,8.00E-02
,,,-1.54E-03,8.00E-02
,,,-1.54E-03,8.00E-02
,,,-1.54E-03,0
,,,-1.54E-03,8.00E-02
,,,-1.53E-03,0
,,,-1.53E-03,0
,,,-1.53E-03,8.00E-02
,,,-1.53E-03,8.00E-02
,,,-1.53E-03,8.00E-02
,,,-1.52E-03,0
,,,-1.52E-03,8.00E-02
,,,-1.52E-03,8.00E-02
,,,-1.52E-03,0
,,,-1.52E-03,8.00E-02
,,,-1.51E-03,0
,,,-1.51E-03,8.00E-02
,,,-1.51E-03,8.00E-02
,,,-1.51E-03,0
,,,-1.51E-03,0
,,,-1.50E-03,0
,,,-1.50E-03,8.00E-02
,,,-1.50E-03,8.00E-02
,,,-1.50E-03,8.00E-02
,,,-1.50E-03,8.00E-02
,,,-1.49E-03,8.00E-02
,,,-1.49E-03,8.00E-02
,,,-1.49E-03,0
,,,-1.49E-03,8.00E-02
,,,-1.49E-03,8.00E-02
,,,-1.48E-03,8.00E-02
,,,-1.48E-03,8.00E-02
,,,-1.48E-03,0
,,,-1.48E-03,8.00E-02
,,,-1.48E-03,8.00E-02
,,,-1.47E-03,8.00E-02
,,,-1.47E-03,0
,,,-1.47E-03,8.00E-02
,,,-1.47E-03,8.00E-02
,,,-1.47E-03,8.00E-02
,,,-1.46E-03,8.00E-02
,,,-1.46E-03,0
,,,-1.46E-03,8.00E-02
,,,-1.46E-03,8.00E-02
,,,-1.46E-03,0
,,,-1.45E-03,8.00E-02
,,,-1.45E-03,8.00E-02
,,,-1.45E-03,8.00E-02
,,,-1.45E-03,8.00E-02
,,,-1.45E-03,8.00E-02
,,,-1.44E-03,0
,,,-1.44E-03,8.00E-02
,,,-1.44E-03,0
,,,-1.44E-03,8.00E-02
,,,-1.44E-03,8.00E-02
,,,-1.43E-03,8.00E-02
,,,-1.43E-03,8.00E-02
,,,-1.43E-03,0
,,,-1.43E-03,0
,,,-1.43E-03,8.00E-02
,,,-1.42E-03,8.00E-02
,,,-1.42E-03,8.00E-02
,,,-1.42E-03,8.00E-02
,,,-1.42E-03,8.00E-02
,,,-1.42E-03,8.00E-02
,,,-1.41E-03,8.00E-02
,,,-1.41E-03,8.00E-02
,,,-1.41E-03,0
,,,-1.41E-03,8.00E-02
,,,-1.41E-03,0
,,,-1.40E-03,8.00E-02
,,,-1.40E-03,8.00E-02
,,,-1.40E-03,8.00E-02
,,,-1.40E-03,8.00E-02
,,,-1.40E-03,8.00E-02
,,,-1.39E-03,8.00E-02
,,,-1.39E-03,8.00E-02
,,,-1.39E-03,8.00E-02
,,,-1.39E-03,0
,,,-1.39E-03,8.00E-02
,,,-1.38E-03,8.00E-02
,,,-1.38E-03,8.00E-02
,,,-1.38E-03,8.00E-02
,,,-1.38E-03,8.00E-02
,,,-1.38E-03,8.00E-02
,,,-1.37E-03,8.00E-02
,,,-1.37E-03,8.00E-02
,,,-1.37E-03,8.00E-02
,,,-1.37E-03,0
,,,-1.37E-03,8.00E-02
,,,-1.36E-03,8.00E-02
,,,-1.36E-03,0
,,,-1.36E-03,8.00E-02
,,,-1.36E-03,0
,,,-1.36E-03,0
,,,-1.35E-03,8.00E-02
,,,-1.35E-03,8.00E-02
,,,-1.35E-03,8.00E-02
,,,-1.35E-03,8.00E-02
,,,-1.35E-03,8.00E-02
,,,-1.34E-03,8.00E-02
,,,-1.34E-03,0
,,,-1.34E-03,8.00E-02
,,,-1.34E-03,0
,,,-1.34E-03,8.00E-02
,,,-1.33E-03,8.00E-02
,,,-1.33E-03,8.00E-02
,,,-1.33E-03,0
,,,-1.33E-03,8.00E-02
,,,-1.33E-03,0
,,,-1.32E-03,8.00E-02
,,,-1.32E-03,8.00E-02
,,,-1.32E-03,8.00E-02
,,,-1.32E-03,0
,,,-1.32E-03,8.00E-02
,,,-1.31E-03,8.00E-02
,,,-1.31E-03,8.00E-02
,,,-1.31E-03,8.00E-02
,,,-1.31E-03,8.00E-02
,,,-1.31E-03,8.00E-02
,,,-1.30E-03,8.00E-02
,,,-1.30E-03,8.00E-02
,,,-1.30E-03,8.00E-02
,,,-1.30E-03,0
,,,-1.30E-03,8.00E-02
,,,-1.29E-03,8.00E-02
,,,-1.29E-03,8.00E-02
,,,-1.29E-03,8.00E-02
,,,-1.29E-03,8.00E-02
,,,-1.29E-03,8.00E-02
,,,-1.28E-03,8.00E-02
,,,-1.28E-03,8.00E-02
,,,-1.28E-03,8.00E-02
,,,-1.28E-03,8.00E-02
,,,-1.28E-03,8.00E-02
,,,-1.27E-03,8.00E-02
,,,-1.27E-03,0
,,,-1.27E-03,8.00E-02
,,,-1.27E-03,8.00E-02
,,,-1.27E-03,0
,,,-1.26E-03,8.00E-02
,,,-1.26E-03,8.00E-02
,,,-1.26E-03,8.00E-02
,,,-1.26E-03,8.00E-02
,,,-1.26E-03,8.00E-02
,,,-1.25E-03,8.00E-02
,,,-1.25E-03,8.00E-02
,,,-1.25E-03,8.00E-02
,,,-1.25E-03,8.00E-02
,,,-1.25E-03,0
,,,-1.24E-03,8.00E-02
,,,-1.24E-03,8.00E-02
,,,-1.24E-03,8.00E-02
,,,-1.24E-03,8.00E-02
,,,-1.24E-03,8.00E-02
,,,-1.23E-03,8.00E-02
,,,-1.23E-03,0
,,,-1.23E-03,8.00E-02
,,,-1.23E-03,8.00E-02
,,,-1.23E-03,8.00E-02
,,,-1.22E-03,8.00E-02
,,,-1.22E-03,0
,,,-1.22E-03,0
,,,-1.22E-03,8.00E-02
,,,-1.22E-03,8.00E-02
,,,-1.21E-03,0
,,,-1.21E-03,8.00E-02
,,,-1.21E-03,8.00E-02
,,,-1.21E-03,8.00E-02
,,,-1.21E-03,8.00E-02
,,,-1.20E-03,8.00E-02
,,,-1.20E-03,8.00E-02
,,,-1.20E-03,8.00E-02
,,,-1.20E-03,8.00E-02
,,,-1.20E-03,8.00E-02
,,,-1.19E-03,8.00E-02
,,,-1.19E-03,0
,,,-1.19E-03,8.00E-02
,,,-1.19E-03,8.00E-02
,,,-1.19E-03,0
,,,-1.18E-03,8.00E-02
,,,-1.18E-03,8.00E-02
,,,-1.18E-03,8.00E-02
,,,-1.18E-03,8.00E-02
,,,-1.18E-03,8.00E-02
,,,-1.17E-03,8.00E-02
,,,-1.17E-03,8.00E-02
,,,-1.17E-03,8.00E-02
,,,-1.17E-03,8.00E-02
,,,-1.17E-03,8.00E-02
,,,-1.16E-03,0
,,,-1.16E-03,8.00E-02
,,,-1.16E-03,8.00E-02
,,,-1.16E-03,8.00E-02
,,,-1.16E-03,8.00E-02
,,,-1.15E-03,8.00E-02
,,,-1.15E-03,8.00E-02
,,,-1.15E-03,8.00E-02
,,,-1.15E-03,8.00E-02
,,,-1.15E-03,8.00E-02
,,,-1.14E-03,8.00E-02
,,,-1.14E-03,8.00E-02
,,,-1.14E-03,8.00E-02
,,,-1.14E-03,8.00E-02
,,,-1.14E-03,0
,,,-1.13E-03,8.00E-02
,,,-1.13E-03,8.00E-02
,,,-1.13E-03,8.00E-02
,,,-1.13E-03,8.00E-02
,,,-1.13E-03,8.00E-02
,,,-1.12E-03,8.00E-02
,,,-1.12E-03,8.00E-02
,,,-1.12E-03,8.00E-02
,,,-1.12E-03,8.00E-02
,,,-1.12E-03,8.00E-02
,,,-1.11E-03,8.00E-02
,,,-1.11E-03,8.00E-02
,,,-1.11E-03,0
,,,-1.11E-03,8.00E-02
,,,-1.11E-03,8.00E-02
,,,-1.10E-03,8.00E-02
,,,-1.10E-03,8.00E-02
,,,-1.10E-03,8.00E-02
,,,-1.10E-03,0
,,,-1.10E-03,8.00E-02
,,,-1.09E-03,8.00E-02
,,,-1.09E-03,8.00E-02
,,,-1.09E-03,0
,,,-1.09E-03,8.00E-02
,,,-1.09E-03,8.00E-02
,,,-1.08E-03,8.00E-02
,,,-1.08E-03,0
,,,-1.08E-03,8.00E-02
,,,-1.08E-03,8.00E-02
,,,-1.08E-03,8.00E-02
,,,-1.07E-03,8.00E-02
,,,-1.07E-03,8.00E-02
,,,-1.07E-03,8.00E-02
,,,-1.07E-03,8.00E-02
,,,-1.07E-03,8.00E-02
,,,-1.06E-03,8.00E-02
,,,-1.06E-03,0
,,,-1.06E-03,8.00E-02
,,,-1.06E-03,8.00E-02
,,,-1.06E-03,8.00E-02
,,,-1.05E-03,0
,,,-1.05E-03,8.00E-02
,,,-1.05E-03,8.00E-02
,,,-1.05E-03,8.00E-02
,,,-1.05E-03,8.00E-02
,,,-1.04E-03,8.00E-02
,,,-1.04E-03,8.00E-02
,,,-1.04E-03,8.00E-02
,,,-1.04E-03,8.00E-02
,,,-1.04E-03,8.00E-02
,,,-1.03E-03,8.00E-02
,,,-1.03E-03,8.00E-02
,,,-1.03E-03,8.00E-02
,,,-1.03E-03,8.00E-02
,,,-1.03E-03,8.00E-02
,,,-1.02E-03,8.00E-02
,,,-1.02E-03,8.00E-02
,,,-1.02E-03,8.00E-02
,,,-1.02E-03,0
,,,-1.02E-03,0
,,,-1.01E-03,8.00E-02
,,,-1.01E-03,0
,,,-1.01E-03,0
,,,-1.01E-03,8.00E-02
,,,-1.01E-03,8.00E-02
,,,-1.00E-03,8.00E-02
,,,-1.00E-03,8.00E-02
,,,-1.00E-03,8.00E-02
,,,-9.98E-04,8.00E-02
,,,-9.96E-04,8.00E-02
,,,-9.94E-04,8.00E-02
,,,-9.92E-04,8.00E-02
,,,-9.90E-04,8.00E-02
,,,-9.88E-04,8.00E-02
,,,-9.86E-04,8.00E-02
,,,-9.84E-04,8.00E-02
,,,-9.82E-04,8.00E-02
,,,-9.80E-04,8.00E-02
,,,-9.78E-04,8.00E-02
,,,-9.76E-04,8.00E-02
,,,-9.74E-04,8.00E-02
,,,-9.72E-04,8.00E-02
,,,-9.70E-04,0
,,,-9.68E-04,0
,,,-9.66E-04,8.00E-02
,,,-9.64E-04,8.00E-02
,,,-9.62E-04,8.00E-02
,,,-9.60E-04,8.00E-02
,,,-9.58E-04,8.00E-02
,,,-9.56E-04,8.00E-02
,,,-9.54E-04,8.00E-02
,,,-9.52E-04,8.00E-02
,,,-9.50E-04,0
,,,-9.48E-04,8.00E-02
,,,-9.46E-04,8.00E-02
,,,-9.44E-04,8.00E-02
,,,-9.42E-04,8.00E-02
,,,-9.40E-04,8.00E-02
,,,-9.38E-04,8.00E-02
,,,-9.36E-04,8.00E-02
,,,-9.34E-04,8.00E-02
,,,-9.32E-04,8.00E-02
,,,-9.30E-04,0
,,,-9.28E-04,8.00E-02
,,,-9.26E-04,8.00E-02
,,,-9.24E-04,0
,,,-9.22E-04,8.00E-02
,,,-9.20E-04,0
,,,-9.18E-04,8.00E-02
,,,-9.16E-04,8.00E-02
,,,-9.14E-04,0
,,,-9.12E-04,0
,,,-9.10E-04,8.00E-02
,,,-9.08E-04,8.00E-02
,,,-9.06E-04,8.00E-02
,,,-9.04E-04,8.00E-02
,,,-9.02E-04,8.00E-02
,,,-9.00E-04,8.00E-02
,,,-8.98E-04,8.00E-02
,,,-8.96E-04,8.00E-02
,,,-8.94E-04,8.00E-02
,,,-8.92E-04,8.00E-02
,,,-8.90E-04,0
,,,-8.88E-04,8.00E-02
,,,-8.86E-04,8.00E-02
,,,-8.84E-04,8.00E-02
,,,-8.82E-04,0
,,,-8.80E-04,0
,,,-8.78E-04,8.00E-02
,,,-8.76E-04,8.00E-02
,,,-8.74E-04,8.00E-02
,,,-8.72E-04,8.00E-02
,,,-8.70E-04,8.00E-02
,,,-8.68E-04,8.00E-02
,,,-8.66E-04,8.00E-02
,,,-8.64E-04,8.00E-02
,,,-8.62E-04,8.00E-02
,,,-8.60E-04,8.00E-02
,,,-8.58E-04,0
,,,-8.56E-04,8.00E-02
,,,-8.54E-04,8.00E-02
,,,-8.52E-04,0
,,,-8.50E-04,8.00E-02
,,,-8.48E-04,8.00E-02
,,,-8.46E-04,8.00E-02
,,,-8.44E-04,8.00E-02
,,,-8.42E-04,8.00E-02
,,,-8.40E-04,0
,,,-8.38E-04,8.00E-02
,,,-8.36E-04,0
,,,-8.34E-04,8.00E-02
,,,-8.32E-04,8.00E-02
,,,-8.30E-04,8.00E-02
,,,-8.28E-04,8.00E-02
,,,-8.26E-04,8.00E-02
,,,-8.24E-04,8.00E-02
,,,-8.22E-04,8.00E-02
,,,-8.20E-04,8.00E-02
,,,-8.18E-04,8.00E-02
,,,-8.16E-04,8.00E-02
,,,-8.14E-04,8.00E-02
,,,-8.12E-04,8.00E-02
,,,-8.10E-04,0
,,,-8.08E-04,8.00E-02
,,,-8.06E-04,8.00E-02
,,,-8.04E-04,8.00E-02
,,,-8.02E-04,8.00E-02
,,,-8.00E-04,8.00E-02
,,,-7.98E-04,8.00E-02
,,,-7.96E-04,0
,,,-7.94E-04,8.00E-02
,,,-7.92E-04,8.00E-02
,,,-7.90E-04,0
,,,-7.88E-04,0
,,,-7.86E-04,8.00E-02
,,,-7.84E-04,8.00E-02
,,,-7.82E-04,0
,,,-7.80E-04,0
,,,-7.78E-04,8.00E-02
,,,-7.76E-04,0
,,,-7.74E-04,8.00E-02
,,,-7.72E-04,8.00E-02
,,,-7.70E-04,8.00E-02
,,,-7.68E-04,0
,,,-7.66E-04,8.00E-02
,,,-7.64E-04,8.00E-02
,,,-7.62E-04,8.00E-02
,,,-7.60E-04,8.00E-02
,,,-7.58E-04,0
,,,-7.56E-04,8.00E-02
,,,-7.54E-04,8.00E-02
,,,-7.52E-04,8.00E-02
,,,-7.50E-04,8.00E-02
,,,-7.48E-04,8.00E-02
,,,-7.46E-04,8.00E-02
,,,-7.44E-04,8.00E-02
,,,-7.42E-04,8.00E-02
,,,-7.40E-04,8.00E-02
,,,-7.38E-04,8.00E-02
,,,-7.36E-04,0
,,,-7.34E-04,0
,,,-7.32E-04,8.00E-02
,,,-7.30E-04,8.00E-02
,,,-7.28E-04,8.00E-02
,,,-7.26E-04,8.00E-02
,,,-7.24E-04,8.00E-02
,,,-7.22E-04,0
,,,-7.20E-04,8.00E-02
,,,-7.18E-04,8.00E-02
,,,-7.16E-04,8.00E-02
,,,-7.14E-04,0
,,,-7.12E-04,8.00E-02
,,,-7.10E-04,8.00E-02
,,,-7.08E-04,8.00E-02
,,,-7.06E-04,8.00E-02
,,,-7.04E-04,8.00E-02
,,,-7.02E-04,8.00E-02
,,,-7.00E-04,0
,,,-6.98E-04,8.00E-02
,,,-6.96E-04,8.00E-02
,,,-6.94E-04,8.00E-02
,,,-6.92E-04,8.00E-02
,,,-6.90E-04,8.00E-02
,,,-6.88E-04,8.00E-02
,,,-6.86E-04,8.00E-02
,,,-6.84E-04,8.00E-02
,,,-6.82E-04,8.00E-02
,,,-6.80E-04,8.00E-02
,,,-6.78E-04,0
,,,-6.76E-04,8.00E-02
,,,-6.74E-04,8.00E-02
,,,-6.72E-04,8.00E-02
,,,-6.70E-04,8.00E-02
,,,-6.68E-04,0
,,,-6.66E-04,0
,,,-6.64E-04,8.00E-02
,,,-6.62E-04,8.00E-02
,,,-6.60E-04,0
,,,-6.58E-04,8.00E-02
,,,-6.56E-04,8.00E-02
,,,-6.54E-04,8.00E-02
,,,-6.52E-04,8.00E-02
,,,-6.50E-04,8.00E-02
,,,-6.48E-04,8.00E-02
,,,-6.46E-04,8.00E-02
,,,-6.44E-04,8.00E-02
,,,-6.42E-04,8.00E-02
,,,-6.40E-04,0
,,,-6.38E-04,8.00E-02
,,,-6.36E-04,8.00E-02
,,,-6.34E-04,8.00E-02
,,,-6.32E-04,8.00E-02
,,,-6.30E-04,8.00E-02
,,,-6.28E-04,8.00E-02
,,,-6.26E-04,0
,,,-6.24E-04,8.00E-02
,,,-6.22E-04,0
,,,-6.20E-04,8.00E-02
,,,-6.18E-04,8.00E-02
,,,-6.16E-04,8.00E-02
,,,-6.14E-04,8.00E-02
,,,-6.12E-04,8.00E-02
,,,-6.10E-04,8.00E-02
,,,-6.08E-04,8.00E-02
,,,-6.06E-04,8.00E-02
,,,-6.04E-04,0
,,,-6.02E-04,8.00E-02
,,,-6.00E-04,0
,,,-5.98E-04,8.00E-02
,,,-5.96E-04,8.00E-02
,,,-5.94E-04,8.00E-02
,,,-5.92E-04,8.00E-02
,,,-5.90E-04,8.00E-02
,,,-5.88E-04,8.00E-02
,,,-5.86E-04,0
,,,-5.84E-04,8.00E-02
,,,-5.82E-04,8.00E-02
